{
    "KPlugin": {
        "Description": "Window decoration using the Breeze visual style for the Plasma Desktop",
        "Description[ar]": "زخرفة نوافذ تستخدم نمط «نسيم» المرئيّ لسطح مكتب «بلازما»",
        "Description[ast]": "La decoración de ventanes pal escritoriu de Plasma qu'usa l'estilu visual Breeze",
        "Description[az]": "Plazma Masaüstü üçün Breeze vizual üslubundan istifadə edən pəncərə bdekorasiyası",
        "Description[ca@valencia]": "Decoració de les finestres que usa l'estil visual Brisa per a l'escriptori de Plasma",
        "Description[ca]": "Decoració de les finestres que usa l'estil visual Brisa per a l'escriptori del Plasma",
        "Description[cs]": "Dekorace oken pro pracovní plochu Plasma využívající styl Breeze",
        "Description[da]": "Vinduesdekoration som bruger den visuelle stil Breeze til Plasma-skrivebordet",
        "Description[de]": "Fensterdekoration im Breeze-Design für die Plasma-Arbeitsfläche",
        "Description[el]": "Διακοσμήσεις παραθύρων με το στιλ του Breeze για την επιφάνεια εργασίας Plasma",
        "Description[en_GB]": "Window decoration using the Breeze visual style for the Plasma Desktop",
        "Description[es]": "Decoración de ventanas que usa el estilo visual Brisa para el escritorio Plasma",
        "Description[et]": "Plasma töölaua akende dekoratsioon Breeze'i visuaalse stiiliga",
        "Description[eu]": "Leiho apainketa Plasma mahaigainerako Breeze ikus-estiloa erabiliz",
        "Description[fi]": "Breeze-tyyliä käyttävä ikkunan kehys Plasma-työpöydälle",
        "Description[fr]": "Décorations de fenêtres utilisant le style visuel Breeze pour le bureau Plasma",
        "Description[gl]": "Decoración de xanelas que usa o estilo visual Breeze para o escritorio Plasma.",
        "Description[hu]": "A Breeze vizuális stílusát használó ablakdekoráció",
        "Description[ia]": "Decoration de fenestra usante le stilo visual Breeze (Brisa) per le scriptorio de Plasma",
        "Description[id]": "Dekorasi window menggunakan gaya visual Breeze untuk Desktop Plasma",
        "Description[it]": "Decorazione per finestre che usa lo stile visuale di Brezza per il desktop Plasma",
        "Description[ko]": "Plasma 데스크톱의 Breeze 시각 스타일을 사용하는 창 장식",
        "Description[lt]": "Langų dekoracijos, naudojant Breeze vaizdinį stilių, skirtą Plasma darbalaukiui",
        "Description[nb]": "Vinduspynt som bruker Breeze-stilen for Plasma-skrivebordet",
        "Description[nl]": "Vensterdecoratie met gebruik van de visuele stijl Breeze voor het Plasma bureaublad",
        "Description[nn]": "Vindaugspynt som brukar Breeze-stilen for Plasma-skrivebordet",
        "Description[pa]": "ਪਲਾਜ਼ਮਾ ਡੈਸਕਟਾਪ ਲਈ ਬਰੀਜ਼ ਦਿੱਖ ਸਟਾਈਲ ਦੀ ਵਰਤੋਂ ਕਰਕੇ ਵਿੰਡੋ ਸਜਾਵਟ",
        "Description[pl]": "Wystrój okien przy użyciu stylu wizualnego Bryzy dla Pulpitu Plazmy",
        "Description[pt]": "Decoração de janelas que usa o estilo visual Brisa para a Área de Trabalho Plasma",
        "Description[pt_BR]": "Decoração de janelas que usa o estilo visual Breeze para o Plasma Desktop",
        "Description[ru]": "Оформление окон Breeze",
        "Description[sk]": "Dekorácia okien pomocou vizuálneho štýlu Vánok pre plochu Plasma",
        "Description[sl]": "Okraski oken, ki uporabljajo vidni slog teme Sapica za namizje Plasma",
        "Description[sr@ijekavian]": "Декорација прозора са Поветарцем као визуелним стилом за плазма површ.",
        "Description[sr@ijekavianlatin]": "Dekoracija prozora sa Povetarcem kao vizuelnim stilom za plasma površ.",
        "Description[sr@latin]": "Dekoracija prozora sa Povetarcem kao vizuelnim stilom za plasma površ.",
        "Description[sr]": "Декорација прозора са Поветарцем као визуелним стилом за плазма површ.",
        "Description[sv]": "Fönsterdekoration med den visuella stilen Breeze för Plasma skrivbord",
        "Description[tg]": "Ороиши равзана бо истифодаи услуби намоёнии Насим барои мизи кории Plasma",
        "Description[tr]": "Breeze görsel biçemini Plasma Masaüstü için kullanan pencere dekorasyonu",
        "Description[uk]": "Обрамлення вікон з використанням візуального стилю Breeze для стільничного середовища Плазми",
        "Description[x-test]": "xxWindow decoration using the Breeze visual style for the Plasma Desktopxx",
        "Description[zh_CN]": "微风视觉主题的 Plasma 桌面窗口装饰",
        "Description[zh_TW]": "使用 Plasma 桌面 Breeze 視覺樣式的視窗裝飾",
        "EnabledByDefault": true,
        "Id": "org.kde.breeze",
        "Name": "Breeze",
        "Name[ar]": "نسيم",
        "Name[ast]": "Breeze",
        "Name[az]": "Breeze",
        "Name[ca@valencia]": "Brisa",
        "Name[ca]": "Brisa",
        "Name[cs]": "Breeze",
        "Name[da]": "Breeze",
        "Name[de]": "Breeze",
        "Name[el]": "Breeze",
        "Name[en_GB]": "Breeze",
        "Name[es]": "Brisa",
        "Name[et]": "Breeze",
        "Name[eu]": "Breeze",
        "Name[fi]": "Breeze",
        "Name[fr]": "Breeze",
        "Name[gl]": "Breeze",
        "Name[hu]": "Breeze",
        "Name[ia]": "Brisa (Breeze)",
        "Name[id]": "Breeze",
        "Name[it]": "Brezza",
        "Name[ko]": "Breeze",
        "Name[lt]": "Breeze",
        "Name[nb]": "Breeze",
        "Name[nl]": "Breeze",
        "Name[nn]": "Breeze",
        "Name[pa]": "ਬਰੀਜ਼",
        "Name[pl]": "Bryza",
        "Name[pt]": "Brisa",
        "Name[pt_BR]": "Breeze",
        "Name[ru]": "Breeze",
        "Name[sk]": "Vánok",
        "Name[sl]": "Sapica",
        "Name[sr@ijekavian]": "Поветарац",
        "Name[sr@ijekavianlatin]": "Povetarac",
        "Name[sr@latin]": "Povetarac",
        "Name[sr]": "Поветарац",
        "Name[sv]": "Breeze",
        "Name[tg]": "Насим",
        "Name[tr]": "Esinti",
        "Name[uk]": "Breeze",
        "Name[x-test]": "xxBreezexx",
        "Name[zh_CN]": "微风",
        "Name[zh_TW]": "Breeze",
        "ServiceTypes": [
            "org.kde.kdecoration2"
        ]
    },
    "org.kde.kdecoration2": {
        "blur": false,
        "kcmodule": true,
        "recommendedBorderSize": "None"
    }
}
